<?xml version="1.0" encoding="UTF-8" standalone="no"?>
<svg
   version="1.1"
   id="Ebene_1"
   x="0px"
   y="0px"
   viewBox="0 0 35.25 34.321999"
   xml:space="preserve"
   width="35.25"
   height="34.321999"
   xmlns="http://www.w3.org/2000/svg"
   xmlns:svg="http://www.w3.org/2000/svg"><defs
   id="defs1" />&#10;<style
   type="text/css"
   id="style1">&#10;	.st0{fill:#1185FE;}&#10;</style>&#10;<path
   class="st0"
   d="M 17.61,13.897368 C 16.01,10.797368 11.67,5.0073676 7.63,2.1573676 3.76,-0.57263238 2.28,-0.10263238 1.32,0.33736762 0.2,0.84736762 0,2.5673676 0,3.5773676 c 0,1.01 0.55,8.3000004 0.92,9.5100004 1.2,4.02 5.45,5.38 9.37,4.94 0.2,-0.03 0.4,-0.06 0.61,-0.08 -0.2,0.03 -0.41,0.06 -0.61,0.08 -5.74,0.85 -10.85,2.94 -4.15,10.39 7.36,7.62 10.09,-1.63 11.49,-6.33 1.4,4.69 3.01,13.61 11.35,6.33 6.27,-6.33 1.72,-9.54 -4.02,-10.39 -0.2,-0.02 -0.41,-0.05 -0.61,-0.08 0.21,0.03 0.41,0.05 0.61,0.08 3.92,0.44 8.18,-0.92 9.37,-4.94 0.36,-1.22 0.92,-8.5000004 0.92,-9.5100004 0,-1.01 -0.2,-2.72999998 -1.32,-3.23999998 -0.97,-0.44 -2.44,-0.91 -6.31,1.81999998 -4.07,2.86 -8.41,8.6400004 -10.01,11.7400004 z"
   id="path1"
   style="fill:#000000" />&#10;</svg>
